/* OpenMP Performance - SIMD (Intel Compiler) */

Numerical integration with n=1000000000
 Step        Time, ms        GSteps/s        Accuracy
    1        6604.241           0.151            -nan*
    2        6600.922           0.151       1.393e+01*
    3        6596.708           0.152       4.384e+00*
    4        6596.012           0.152       2.877e+00
    5        6598.895           0.152       2.289e+00
    6        6595.592           0.152       1.979e+00
    7        6599.806           0.152       1.789e+00
    8        6600.395           0.152       1.660e+00
    9        6599.950           0.152       1.567e+00
   10        6600.873           0.151       1.497e+00
-----------------------------------------------------
Average performance:
             6598.8+-2.0        0.2+-0.0
-----------------------------------------------------
* - warm-up, not included in average


real	1m5.997s
user	1m5.933s
sys	0m0.002s

